newmtl lambert3SG
illum 4
Kd 0.00 0.00 0.00
Ka 0.00 0.00 0.00
Tf 1.00 1.00 1.00
map_Kd Palm_01/VL1X8_002.png
Ni 1.00
newmtl lambert4SG
illum 4
Kd 0.00 0.00 0.00
Ka 0.00 0.00 0.00
Tf 1.00 1.00 1.00
map_Kd Palm_01/stalk_003_gradient.jpg
Ni 1.00
